<?xml version="1.0" encoding="UTF-8" standalone="no"?>
<!-- Created with Inkscape (http://www.inkscape.org/) -->

<svg
   xmlns:dc="http://purl.org/dc/elements/1.1/"
   xmlns:cc="http://creativecommons.org/ns#"
   xmlns:rdf="http://www.w3.org/1999/02/22-rdf-syntax-ns#"
   xmlns:svg="http://www.w3.org/2000/svg"
   xmlns="http://www.w3.org/2000/svg"
   xmlns:xlink="http://www.w3.org/1999/xlink"
   xmlns:sodipodi="http://sodipodi.sourceforge.net/DTD/sodipodi-0.dtd"
   xmlns:inkscape="http://www.inkscape.org/namespaces/inkscape"
   width="121.30234mm"
   height="90.470009mm"
   viewBox="0 0 121.30234 90.470009"
   version="1.1"
   id="svg1400"
   inkscape:version="0.92.5 (2060ec1f9f, 2020-04-08)"
   sodipodi:docname="memchialvobak.svg">
  <defs
     id="defs1394" />
  <sodipodi:namedview
     id="base"
     pagecolor="#ffffff"
     bordercolor="#666666"
     borderopacity="1.0"
     inkscape:pageopacity="0.0"
     inkscape:pageshadow="2"
     inkscape:zoom="0.98994949"
     inkscape:cx="-39.406619"
     inkscape:cy="-6.3938319"
     inkscape:document-units="mm"
     inkscape:current-layer="layer1"
     showgrid="false"
     fit-margin-top="0"
     fit-margin-left="0"
     fit-margin-right="0"
     fit-margin-bottom="0"
     inkscape:window-width="1366"
     inkscape:window-height="704"
     inkscape:window-x="0"
     inkscape:window-y="27"
     inkscape:window-maximized="1" />
  <metadata
     id="metadata1397">
    <rdf:RDF>
      <cc:Work
         rdf:about="">
        <dc:format>image/svg+xml</dc:format>
        <dc:type
           rdf:resource="http://purl.org/dc/dcmitype/StillImage" />
        <dc:title />
      </cc:Work>
    </rdf:RDF>
  </metadata>
  <g
     inkscape:label="Layer 1"
     inkscape:groupmode="layer"
     id="layer1"
     transform="translate(84.085692,-42.366186)">
    <g
       transform="translate(-107.89359,40.584111)"
       id="g1280">
      <rect
         inkscape:export-ydpi="150"
         inkscape:export-xdpi="150"
         inkscape:export-filename="/home/juanpi/Downloads/memnet.png"
         y="1.782075"
         x="23.807898"
         height="90.470009"
         width="121.30234"
         id="rect6028"
         style="opacity:1;fill:#ffffff;fill-opacity:1;stroke:none;stroke-width:0.26499999;stroke-linecap:round;stroke-linejoin:miter;stroke-miterlimit:4;stroke-dasharray:0.52999997, 0.52999997;stroke-dashoffset:0;stroke-opacity:1" />
      <g
         transform="translate(20.859538)"
         style="opacity:1"
         id="g1121">
        <g
           id="g5054-6"
           transform="matrix(-1,0,0,1,129.46354,9.1821289e-7)"
           inkscape:export-filename="/home/juanpi/Downloads/memnet.png"
           inkscape:export-xdpi="150"
           inkscape:export-ydpi="150">
          <path
             sodipodi:nodetypes="cc"
             inkscape:connector-curvature="0"
             id="path5044-2"
             d="M 28.878932,27.532073 C 13.784036,27.837046 10.95611,16.890669 64.960322,7.6228677"
             style="fill:none;stroke:#000000;stroke-width:0.26458332px;stroke-linecap:butt;stroke-linejoin:miter;stroke-opacity:1" />
          <path
             style="fill:none;stroke:#000000;stroke-width:0.26458332px;stroke-linecap:butt;stroke-linejoin:miter;stroke-opacity:1"
             d="M 28.878932,36.975611 C 3.8849632,37.155279 8.4500156,12.880918 64.960322,7.6228677"
             id="path5046-5"
             inkscape:connector-curvature="0"
             sodipodi:nodetypes="cc" />
        </g>
        <use
           x="0"
           y="0"
           xlink:href="#g5040"
           id="use5042"
           transform="matrix(-1,0,0,1,129.46354,0)"
           width="100%"
           height="100%"
           inkscape:export-filename="/home/juanpi/Downloads/memnet.png"
           inkscape:export-xdpi="150"
           inkscape:export-ydpi="150" />
        <g
           id="g5040"
           inkscape:export-filename="/home/juanpi/Downloads/memnet.png"
           inkscape:export-xdpi="150"
           inkscape:export-ydpi="150">
          <g
             transform="translate(0,4.2333335)"
             id="g4926">
            <g
               id="g4876">
              <use
                 height="100%"
                 width="100%"
                 transform="translate(0,9.4435375)"
                 id="use4801"
                 xlink:href="#g4799"
                 y="0"
                 x="0" />
              <g
                 transform="translate(23.34003,-41.09471)"
                 id="g4799">
                <path
                   sodipodi:nodetypes="cc"
                   inkscape:tile-y0="70.459968"
                   inkscape:tile-x0="6.0476189"
                   inkscape:connector-curvature="0"
                   id="use4724"
                   d="M 4.239955,64.39345 H 9.071431"
                   style="fill:none;stroke:#000000;stroke-width:0.26458332px;stroke-linecap:butt;stroke-linejoin:miter;stroke-opacity:1" />
                <g
                   id="g4732"
                   transform="translate(-5.2916668)">
                  <path
                     sodipodi:nodetypes="cc"
                     inkscape:tile-y0="70.459968"
                     inkscape:tile-x0="6.0476189"
                     inkscape:connector-curvature="0"
                     id="use4718"
                     d="m 14.067335,63.171338 h 4.831476"
                     style="fill:none;stroke:#000000;stroke-width:0.26458332px;stroke-linecap:butt;stroke-linejoin:miter;stroke-opacity:1" />
                  <path
                     sodipodi:nodetypes="cc"
                     inkscape:tile-y0="70.459968"
                     inkscape:tile-x0="6.0476189"
                     inkscape:connector-curvature="0"
                     id="use4720"
                     d="m 14.067335,65.615585 h 4.831476"
                     style="fill:none;stroke:#000000;stroke-width:0.26458332px;stroke-linecap:butt;stroke-linejoin:miter;stroke-opacity:1" />
                  <path
                     sodipodi:nodetypes="cc"
                     inkscape:tile-y0="70.459968"
                     inkscape:tile-x0="6.0476189"
                     inkscape:connector-curvature="0"
                     id="use4722"
                     d="m 14.067335,60.727081 h 4.831476"
                     style="fill:none;stroke:#000000;stroke-width:0.26458332px;stroke-linecap:butt;stroke-linejoin:miter;stroke-opacity:1" />
                  <path
                     sodipodi:nodetypes="cc"
                     inkscape:tile-y0="70.459968"
                     inkscape:tile-x0="6.0476189"
                     inkscape:connector-curvature="0"
                     id="use4726"
                     d="m 14.067335,68.05982 h 4.831476"
                     style="fill:none;stroke:#000000;stroke-width:0.26458332px;stroke-linecap:butt;stroke-linejoin:miter;stroke-opacity:1" />
                </g>
                <path
                   style="fill:none;stroke:#000000;stroke-width:0.26458332px;stroke-linecap:butt;stroke-linejoin:miter;stroke-opacity:1"
                   d="m 8.953529,60.66692 v 7.349911"
                   id="path4746"
                   inkscape:connector-curvature="0" />
                <g
                   inkscape:tile-y0="5.8828278"
                   inkscape:tile-x0="-42.192321"
                   transform="matrix(0.41100491,0,0,0.41100491,27.633434,62.68031)"
                   id="use4780">
                  <rect
                     style="opacity:1;fill:#ffffff;fill-opacity:1;stroke:#000000;stroke-width:0.5;stroke-linecap:butt;stroke-linejoin:miter;stroke-miterlimit:4;stroke-dasharray:none;stroke-dashoffset:0;stroke-opacity:1"
                     id="rect2206"
                     width="6"
                     height="4"
                     x="-43.832203"
                     y="5.1416759" />
                  <rect
                     y="5.1416759"
                     x="-37.75182"
                     height="4"
                     width="2"
                     id="rect2208"
                     style="opacity:1;fill:#000000;fill-opacity:1;stroke:#000000;stroke-width:0.5;stroke-linecap:butt;stroke-linejoin:miter;stroke-miterlimit:4;stroke-dasharray:none;stroke-dashoffset:0;stroke-opacity:1" />
                </g>
                <g
                   inkscape:tile-y0="5.8828278"
                   inkscape:tile-x0="-42.192321"
                   transform="matrix(0.41100491,0,0,0.41100491,27.633434,65.124556)"
                   id="use4782">
                  <rect
                     style="opacity:1;fill:#ffffff;fill-opacity:1;stroke:#000000;stroke-width:0.5;stroke-linecap:butt;stroke-linejoin:miter;stroke-miterlimit:4;stroke-dasharray:none;stroke-dashoffset:0;stroke-opacity:1"
                     id="rect2212"
                     width="6"
                     height="4"
                     x="-43.832203"
                     y="5.1416759" />
                  <rect
                     y="5.1416759"
                     x="-37.75182"
                     height="4"
                     width="2"
                     id="rect2214"
                     style="opacity:1;fill:#000000;fill-opacity:1;stroke:#000000;stroke-width:0.5;stroke-linecap:butt;stroke-linejoin:miter;stroke-miterlimit:4;stroke-dasharray:none;stroke-dashoffset:0;stroke-opacity:1" />
                </g>
                <g
                   inkscape:tile-y0="5.8828278"
                   inkscape:tile-x0="-42.192321"
                   transform="matrix(0.41100491,0,0,0.41100491,27.633434,60.236073)"
                   id="use4784">
                  <rect
                     style="opacity:1;fill:#ffffff;fill-opacity:1;stroke:#000000;stroke-width:0.5;stroke-linecap:butt;stroke-linejoin:miter;stroke-miterlimit:4;stroke-dasharray:none;stroke-dashoffset:0;stroke-opacity:1"
                     id="rect2218"
                     width="6"
                     height="4"
                     x="-43.832203"
                     y="5.1416759" />
                  <rect
                     y="5.1416759"
                     x="-37.75182"
                     height="4"
                     width="2"
                     id="rect2220"
                     style="opacity:1;fill:#000000;fill-opacity:1;stroke:#000000;stroke-width:0.5;stroke-linecap:butt;stroke-linejoin:miter;stroke-miterlimit:4;stroke-dasharray:none;stroke-dashoffset:0;stroke-opacity:1" />
                </g>
                <g
                   inkscape:tile-y0="5.8828278"
                   inkscape:tile-x0="-42.192321"
                   transform="matrix(0.41100491,0,0,0.41100491,27.633434,57.791817)"
                   id="use4786">
                  <rect
                     style="opacity:1;fill:#ffffff;fill-opacity:1;stroke:#000000;stroke-width:0.5;stroke-linecap:butt;stroke-linejoin:miter;stroke-miterlimit:4;stroke-dasharray:none;stroke-dashoffset:0;stroke-opacity:1"
                     id="rect2224"
                     width="6"
                     height="4"
                     x="-43.832203"
                     y="5.1416759" />
                  <rect
                     y="5.1416759"
                     x="-37.75182"
                     height="4"
                     width="2"
                     id="rect2226"
                     style="opacity:1;fill:#000000;fill-opacity:1;stroke:#000000;stroke-width:0.5;stroke-linecap:butt;stroke-linejoin:miter;stroke-miterlimit:4;stroke-dasharray:none;stroke-dashoffset:0;stroke-opacity:1" />
                </g>
              </g>
              <g
                 id="g4852">
                <path
                   style="fill:none;stroke:#000000;stroke-width:0.26458332px;stroke-linecap:round;stroke-linejoin:miter;stroke-opacity:1"
                   d="m 36.947174,19.632371 6.39655,-3.690477"
                   id="path4810"
                   inkscape:connector-curvature="0"
                   sodipodi:nodetypes="cc" />
                <path
                   style="fill:none;stroke:#000000;stroke-width:0.26458332px;stroke-linecap:round;stroke-linejoin:miter;stroke-opacity:1"
                   d="m 36.947174,26.96511 6.39655,15.169198"
                   id="path4814"
                   inkscape:connector-curvature="0"
                   sodipodi:nodetypes="cc" />
                <path
                   inkscape:connector-curvature="0"
                   id="path4816"
                   d="m 36.947174,24.520875 6.39655,8.882621"
                   style="fill:none;stroke:#000000;stroke-width:0.26458332px;stroke-linecap:round;stroke-linejoin:miter;stroke-opacity:1"
                   sodipodi:nodetypes="cc" />
                <path
                   style="fill:none;stroke:#000000;stroke-width:0.26458332px;stroke-linecap:round;stroke-linejoin:miter;stroke-opacity:1"
                   d="m 36.947174,22.076628 6.39655,2.596067"
                   id="path4818"
                   inkscape:connector-curvature="0"
                   sodipodi:nodetypes="cc" />
                <path
                   sodipodi:nodetypes="cc"
                   inkscape:connector-curvature="0"
                   id="path4826"
                   d="m 36.947174,36.408648 6.39655,5.72566"
                   style="fill:none;stroke:#000000;stroke-width:0.26458332px;stroke-linecap:round;stroke-linejoin:miter;stroke-opacity:1" />
                <path
                   sodipodi:nodetypes="cc"
                   inkscape:connector-curvature="0"
                   id="path4828"
                   d="m 36.947174,29.075909 6.39655,-13.134015"
                   style="fill:none;stroke:#000000;stroke-width:0.26458332px;stroke-linecap:round;stroke-linejoin:miter;stroke-opacity:1" />
                <path
                   sodipodi:nodetypes="cc"
                   style="fill:none;stroke:#000000;stroke-width:0.26458332px;stroke-linecap:round;stroke-linejoin:miter;stroke-opacity:1"
                   d="m 36.947174,31.520144 6.39655,-6.847449"
                   id="path4830"
                   inkscape:connector-curvature="0" />
                <path
                   sodipodi:nodetypes="cc"
                   inkscape:connector-curvature="0"
                   id="path4832"
                   d="m 36.947174,33.964391 6.39655,-0.560895"
                   style="fill:none;stroke:#000000;stroke-width:0.26458332px;stroke-linecap:round;stroke-linejoin:miter;stroke-opacity:1" />
              </g>
            </g>
            <g
               id="g4882">
              <circle
                 r="1.5"
                 cx="28.878933"
                 cy="23.29874"
                 id="use4625"
                 style="opacity:1;fill:#000000;fill-opacity:1;stroke:none;stroke-width:4;stroke-linecap:butt;stroke-linejoin:round;stroke-miterlimit:4;stroke-dasharray:none;stroke-dashoffset:0;stroke-opacity:1" />
              <circle
                 r="1.5"
                 cx="28.878933"
                 cy="32.742279"
                 id="use4629"
                 style="opacity:1;fill:#000000;fill-opacity:1;stroke:none;stroke-width:4;stroke-linecap:butt;stroke-linejoin:round;stroke-miterlimit:4;stroke-dasharray:none;stroke-dashoffset:0;stroke-opacity:1" />
            </g>
            <g
               id="g4666"
               transform="translate(-4.511347,-3.9714363)">
              <circle
                 r="1.5"
                 cx="47.855072"
                 cy="46.105743"
                 id="use4639"
                 style="opacity:1;fill:#000000;fill-opacity:1;stroke:none;stroke-width:4;stroke-linecap:butt;stroke-linejoin:round;stroke-miterlimit:4;stroke-dasharray:none;stroke-dashoffset:0;stroke-opacity:1" />
              <circle
                 r="1.5"
                 cx="47.855072"
                 cy="37.374931"
                 id="use4641"
                 style="opacity:1;fill:#000000;fill-opacity:1;stroke:none;stroke-width:4;stroke-linecap:butt;stroke-linejoin:round;stroke-miterlimit:4;stroke-dasharray:none;stroke-dashoffset:0;stroke-opacity:1" />
              <circle
                 r="1.5"
                 cx="47.855072"
                 cy="28.644131"
                 id="use4643"
                 style="opacity:1;fill:#000000;fill-opacity:1;stroke:none;stroke-width:4;stroke-linecap:butt;stroke-linejoin:round;stroke-miterlimit:4;stroke-dasharray:none;stroke-dashoffset:0;stroke-opacity:1" />
              <circle
                 r="1.5"
                 cx="47.855072"
                 cy="19.91333"
                 id="use4645"
                 style="opacity:1;fill:#000000;fill-opacity:1;stroke:none;stroke-width:4;stroke-linecap:butt;stroke-linejoin:round;stroke-miterlimit:4;stroke-dasharray:none;stroke-dashoffset:0;stroke-opacity:1" />
            </g>
          </g>
          <g
             id="g4993">
            <path
               style="fill:none;stroke:#000000;stroke-width:0.26458332px;stroke-linecap:butt;stroke-linejoin:miter;stroke-opacity:1"
               d="m 50.466477,18.760864 -7.122753,1.414363 7.436014,0.183272"
               id="path4978"
               inkscape:connector-curvature="0"
               sodipodi:nodetypes="ccc" />
            <use
               x="0"
               y="0"
               xlink:href="#path4978"
               id="use4980"
               inkscape:transform-center-x="-2.8645468"
               inkscape:transform-center-y="1.6114447"
               width="100%"
               height="100%"
               transform="rotate(31.016431,43.417908,20.179021)" />
            <use
               x="0"
               y="0"
               xlink:href="#path4978"
               id="use4982"
               inkscape:transform-center-x="-2.9924595"
               inkscape:transform-center-y="1.2493247"
               width="100%"
               height="100%"
               transform="rotate(22.967821,43.367258,20.172239)" />
          </g>
          <use
             height="100%"
             width="100%"
             transform="translate(-0.06265236,8.7713305)"
             id="use4995"
             xlink:href="#g4993"
             y="0"
             x="0" />
          <use
             height="100%"
             width="100%"
             transform="matrix(1,0,0,-1,-0.12530472,58.093562)"
             id="use4997"
             xlink:href="#g4993"
             y="0"
             x="0" />
          <use
             height="100%"
             width="100%"
             transform="matrix(1,0,0,-1,-0.06265236,66.55163)"
             id="use4999"
             xlink:href="#g4993"
             y="0"
             x="0" />
        </g>
        <rect
           style="opacity:1;fill:#cccccc;fill-opacity:1;stroke:#000000;stroke-width:0.5;stroke-linecap:round;stroke-linejoin:miter;stroke-miterlimit:4;stroke-dasharray:1.50000004, 1.50000004;stroke-dashoffset:0;stroke-opacity:1"
           id="rect4928"
           width="31.720167"
           height="30.834129"
           x="48.732101"
           y="17.543556"
           inkscape:export-filename="/home/juanpi/Downloads/memnet.png"
           inkscape:export-xdpi="150"
           inkscape:export-ydpi="150" />
        <g
           id="g5066"
           inkscape:export-filename="/home/juanpi/Downloads/memnet.png"
           inkscape:export-xdpi="150"
           inkscape:export-ydpi="150">
          <g
             id="g5054">
            <path
               style="fill:none;stroke:#000000;stroke-width:0.26458332px;stroke-linecap:butt;stroke-linejoin:miter;stroke-opacity:1"
               d="M 28.878932,27.532073 C 13.784036,27.837046 10.95611,16.890669 64.960322,7.6228677"
               id="path5044"
               inkscape:connector-curvature="0"
               sodipodi:nodetypes="cc" />
            <path
               sodipodi:nodetypes="cc"
               inkscape:connector-curvature="0"
               id="path5046"
               d="M 28.878932,36.975611 C 3.8849632,37.155279 8.4500156,12.880918 64.960322,7.6228677"
               style="fill:none;stroke:#000000;stroke-width:0.26458332px;stroke-linecap:butt;stroke-linejoin:miter;stroke-opacity:1" />
          </g>
          <g
             id="g5058">
            <g
               id="use5048"
               transform="translate(63.028277,-1.5036567)">
              <circle
                 style="opacity:1;fill:#ffffff;fill-opacity:1;stroke:#000000;stroke-width:0.5;stroke-linecap:butt;stroke-linejoin:miter;stroke-miterlimit:4;stroke-dasharray:none;stroke-dashoffset:0;stroke-opacity:1"
                 id="circle2182"
                 cx="-40.147533"
                 cy="28.562437"
                 r="2.9399648" />
              <text
                 xml:space="preserve"
                 style="font-style:normal;font-variant:normal;font-weight:normal;font-stretch:normal;font-size:5.29166651px;line-height:1.25;font-family:Ubuntu;-inkscape-font-specification:'Ubuntu, Normal';font-variant-ligatures:normal;font-variant-caps:normal;font-variant-numeric:normal;font-feature-settings:normal;text-align:start;letter-spacing:0px;word-spacing:0px;writing-mode:lr-tb;text-anchor:start;fill:#000000;fill-opacity:1;stroke:none;stroke-width:0.26458332"
                 x="-41.56041"
                 y="30.398645"
                 id="text2186"><tspan
                   sodipodi:role="line"
                   id="tspan2184"
                   x="-41.56041"
                   y="30.398645"
                   style="font-size:5.29166651px;stroke-width:0.26458332">S</tspan></text>
            </g>
            <g
               id="use5050"
               transform="translate(63.028277,8.1385099)">
              <circle
                 style="opacity:1;fill:#ffffff;fill-opacity:1;stroke:#000000;stroke-width:0.5;stroke-linecap:butt;stroke-linejoin:miter;stroke-miterlimit:4;stroke-dasharray:none;stroke-dashoffset:0;stroke-opacity:1"
                 id="circle2190"
                 cx="-40.147533"
                 cy="28.562437"
                 r="2.9399648" />
              <text
                 xml:space="preserve"
                 style="font-style:normal;font-variant:normal;font-weight:normal;font-stretch:normal;font-size:5.29166651px;line-height:1.25;font-family:Ubuntu;-inkscape-font-specification:'Ubuntu, Normal';font-variant-ligatures:normal;font-variant-caps:normal;font-variant-numeric:normal;font-feature-settings:normal;text-align:start;letter-spacing:0px;word-spacing:0px;writing-mode:lr-tb;text-anchor:start;fill:#000000;fill-opacity:1;stroke:none;stroke-width:0.26458332"
                 x="-41.56041"
                 y="30.398645"
                 id="text2194"><tspan
                   sodipodi:role="line"
                   id="tspan2192"
                   x="-41.56041"
                   y="30.398645"
                   style="font-size:5.29166651px;stroke-width:0.26458332">S</tspan></text>
            </g>
          </g>
        </g>
        <g
           transform="translate(102.42373,-21.549875)"
           id="g4560-1"
           inkscape:export-filename="/home/juanpi/Downloads/memnet.png"
           inkscape:export-xdpi="150"
           inkscape:export-ydpi="150">
          <circle
             cy="29.172743"
             cx="-37.833317"
             id="path4551-0"
             style="opacity:1;fill:#ffffff;fill-opacity:1;stroke:#000000;stroke-width:0.5;stroke-linecap:butt;stroke-linejoin:miter;stroke-miterlimit:4;stroke-dasharray:none;stroke-dashoffset:0;stroke-opacity:1"
             r="4" />
          <text
             id="text4555-5"
             y="30.398645"
             x="-41.56041"
             style="font-style:normal;font-variant:normal;font-weight:normal;font-stretch:normal;font-size:5.29166651px;line-height:1.25;font-family:Ubuntu;-inkscape-font-specification:'Ubuntu, Normal';font-variant-ligatures:normal;font-variant-caps:normal;font-variant-numeric:normal;font-feature-settings:normal;text-align:start;letter-spacing:0px;word-spacing:0px;writing-mode:lr-tb;text-anchor:start;fill:#000000;fill-opacity:1;stroke:none;stroke-width:0.26458332"
             xml:space="preserve"><tspan
               style="font-size:3.52777767px;stroke-width:0.26458332"
               y="30.398645"
               x="-41.56041"
               id="tspan4553-1"
               sodipodi:role="line">GND</tspan></text>
        </g>
        <text
           id="text5113"
           y="44.566021"
           x="26.912565"
           style="font-style:normal;font-variant:normal;font-weight:normal;font-stretch:normal;font-size:4.23333311px;line-height:1.25;font-family:Ubuntu;-inkscape-font-specification:'Ubuntu, Normal';font-variant-ligatures:normal;font-variant-caps:normal;font-variant-numeric:normal;font-feature-settings:normal;text-align:start;letter-spacing:0px;word-spacing:0px;writing-mode:lr-tb;text-anchor:start;fill:#000000;fill-opacity:1;stroke:none;stroke-width:0.26458332"
           xml:space="preserve"
           inkscape:export-filename="/home/juanpi/Downloads/memnet.png"
           inkscape:export-xdpi="150"
           inkscape:export-ydpi="150"><tspan
             style="font-size:4.23333311px;stroke-width:0.26458332"
             y="44.566021"
             x="26.912565"
             id="tspan5111"
             sodipodi:role="line">in</tspan></text>
        <text
           id="text5117"
           y="44.510986"
           x="97.027313"
           style="font-style:normal;font-variant:normal;font-weight:normal;font-stretch:normal;font-size:4.23333311px;line-height:1.25;font-family:Ubuntu;-inkscape-font-specification:'Ubuntu, Normal';font-variant-ligatures:normal;font-variant-caps:normal;font-variant-numeric:normal;font-feature-settings:normal;text-align:start;letter-spacing:0px;word-spacing:0px;writing-mode:lr-tb;text-anchor:start;fill:#000000;fill-opacity:1;stroke:none;stroke-width:0.26458332"
           xml:space="preserve"
           inkscape:export-filename="/home/juanpi/Downloads/memnet.png"
           inkscape:export-xdpi="150"
           inkscape:export-ydpi="150"><tspan
             style="font-size:4.23333311px;stroke-width:0.26458332"
             y="44.510986"
             x="97.027313"
             id="tspan5115"
             sodipodi:role="line">out</tspan></text>
        <text
           id="text5121"
           y="55.792645"
           x="32.451385"
           style="font-style:normal;font-variant:normal;font-weight:normal;font-stretch:normal;font-size:4.23333311px;line-height:1.25;font-family:Ubuntu;-inkscape-font-specification:'Ubuntu, Normal';font-variant-ligatures:normal;font-variant-caps:normal;font-variant-numeric:normal;font-feature-settings:normal;text-align:start;letter-spacing:0px;word-spacing:0px;writing-mode:lr-tb;text-anchor:start;fill:#000000;fill-opacity:1;stroke:none;stroke-width:0.26458332"
           xml:space="preserve"
           inkscape:export-filename="/home/juanpi/Downloads/memnet.png"
           inkscape:export-xdpi="150"
           inkscape:export-ydpi="150"><tspan
             style="font-size:4.23333311px;stroke-width:0.26458332"
             y="55.792645"
             x="32.451385"
             id="tspan5119"
             sodipodi:role="line">interface in</tspan></text>
        <text
           id="text5125"
           y="55.792645"
           x="73.372665"
           style="font-style:normal;font-variant:normal;font-weight:normal;font-stretch:normal;font-size:4.23333311px;line-height:1.25;font-family:Ubuntu;-inkscape-font-specification:'Ubuntu, Normal';font-variant-ligatures:normal;font-variant-caps:normal;font-variant-numeric:normal;font-feature-settings:normal;text-align:start;letter-spacing:0px;word-spacing:0px;writing-mode:lr-tb;text-anchor:start;fill:#000000;fill-opacity:1;stroke:none;stroke-width:0.26458332"
           xml:space="preserve"
           inkscape:export-filename="/home/juanpi/Downloads/memnet.png"
           inkscape:export-xdpi="150"
           inkscape:export-ydpi="150"><tspan
             style="font-size:4.23333311px;stroke-width:0.26458332"
             y="55.792645"
             x="73.372665"
             id="tspan5123"
             sodipodi:role="line">interface out</tspan></text>
        <text
           xml:space="preserve"
           style="font-style:normal;font-variant:normal;font-weight:normal;font-stretch:normal;font-size:4.23333311px;line-height:1.25;font-family:Ubuntu;-inkscape-font-specification:'Ubuntu, Normal';font-variant-ligatures:normal;font-variant-caps:normal;font-variant-numeric:normal;font-feature-settings:normal;text-align:start;letter-spacing:0px;word-spacing:0px;writing-mode:lr-tb;text-anchor:start;fill:#000000;fill-opacity:1;stroke:none;stroke-width:0.26458332"
           x="60.522175"
           y="34.110695"
           id="text5109"
           inkscape:export-filename="/home/juanpi/Downloads/memnet.png"
           inkscape:export-xdpi="150"
           inkscape:export-ydpi="150"><tspan
             sodipodi:role="line"
             id="tspan5107"
             x="60.522175"
             y="34.110695"
             style="font-size:4.23333311px;stroke-width:0.26458332">bulk</tspan></text>
        <g
           transform="translate(146.85713,8.270112)"
           id="use5137">
          <circle
             r="2.9399648"
             cy="28.562437"
             cx="-40.147533"
             id="circle2240"
             style="opacity:1;fill:#ffffff;fill-opacity:1;stroke:#000000;stroke-width:0.5;stroke-linecap:butt;stroke-linejoin:miter;stroke-miterlimit:4;stroke-dasharray:none;stroke-dashoffset:0;stroke-opacity:1" />
          <text
             id="text2244"
             y="30.396"
             x="-41.901722"
             style="font-style:normal;font-variant:normal;font-weight:normal;font-stretch:normal;font-size:5.29166651px;line-height:1.25;font-family:Ubuntu;-inkscape-font-specification:'Ubuntu, Normal';font-variant-ligatures:normal;font-variant-caps:normal;font-variant-numeric:normal;font-feature-settings:normal;text-align:start;letter-spacing:0px;word-spacing:0px;writing-mode:lr-tb;text-anchor:start;fill:#000000;fill-opacity:1;stroke:none;stroke-width:0.26458332"
             xml:space="preserve"><tspan
               style="font-size:5.29166651px;stroke-width:0.26458332"
               y="30.396"
               x="-41.901722"
               id="tspan2242"
               sodipodi:role="line">A</tspan></text>
        </g>
        <g
           transform="translate(146.48122,-1.503656)"
           id="use5139">
          <circle
             r="2.9399648"
             cy="28.562437"
             cx="-40.147533"
             id="circle2248"
             style="opacity:1;fill:#ffffff;fill-opacity:1;stroke:#000000;stroke-width:0.5;stroke-linecap:butt;stroke-linejoin:miter;stroke-miterlimit:4;stroke-dasharray:none;stroke-dashoffset:0;stroke-opacity:1" />
          <text
             id="text2252"
             y="30.396"
             x="-41.901722"
             style="font-style:normal;font-variant:normal;font-weight:normal;font-stretch:normal;font-size:5.29166651px;line-height:1.25;font-family:Ubuntu;-inkscape-font-specification:'Ubuntu, Normal';font-variant-ligatures:normal;font-variant-caps:normal;font-variant-numeric:normal;font-feature-settings:normal;text-align:start;letter-spacing:0px;word-spacing:0px;writing-mode:lr-tb;text-anchor:start;fill:#000000;fill-opacity:1;stroke:none;stroke-width:0.26458332"
             xml:space="preserve"><tspan
               style="font-size:5.29166651px;stroke-width:0.26458332"
               y="30.396"
               x="-41.901722"
               id="tspan2250"
               sodipodi:role="line">A</tspan></text>
        </g>
      </g>
      <g
         transform="translate(0,-10.583334)"
         style="opacity:1"
         id="g1154">
        <g
           transform="translate(0,2.3714693)"
           id="g1175">
          <g
             id="use5141"
             style="stroke-width:1.43762863"
             transform="matrix(1.8431798,0,0,1.8431662,106.57865,30.299369)">
            <circle
               style="opacity:1;fill:#ffffff;fill-opacity:1;stroke:#000000;stroke-width:0.5;stroke-linecap:butt;stroke-linejoin:miter;stroke-miterlimit:4;stroke-dasharray:none;stroke-dashoffset:0;stroke-opacity:1"
               id="circle2198"
               cx="-40.147533"
               cy="28.562437"
               r="2.9399648" />
            <text
               xml:space="preserve"
               style="font-style:normal;font-variant:normal;font-weight:normal;font-stretch:normal;font-size:5.29166651px;line-height:1.25;font-family:Ubuntu;-inkscape-font-specification:'Ubuntu, Normal';font-variant-ligatures:normal;font-variant-caps:normal;font-variant-numeric:normal;font-feature-settings:normal;text-align:start;letter-spacing:0px;word-spacing:0px;writing-mode:lr-tb;text-anchor:start;fill:#000000;fill-opacity:1;stroke:none;stroke-width:0.26458332"
               x="-41.56041"
               y="30.398645"
               id="text2202"><tspan
                 sodipodi:role="line"
                 id="tspan2200"
                 x="-41.56041"
                 y="30.398645"
                 style="font-size:5.29166651px;stroke-width:0.26458332">S</tspan></text>
          </g>
          <g
             inkscape:export-ydpi="150"
             inkscape:export-xdpi="150"
             inkscape:export-filename="/home/juanpi/Downloads/memnet.png"
             transform="translate(-7.4083337,4.517713)"
             id="g5217">
            <g
               id="g5151"
               transform="translate(1.036593,-3.7041668)">
              <path
                 inkscape:connector-curvature="0"
                 id="path5145"
                 d="m 47.491647,68.402146 v 8.151553"
                 style="fill:none;stroke:#000000;stroke-width:0.26458332px;stroke-linecap:butt;stroke-linejoin:miter;stroke-opacity:1" />
              <path
                 sodipodi:nodetypes="cc"
                 inkscape:connector-curvature="0"
                 id="path5147"
                 d="M 46.802471,72.477923 H 63.085918"
                 style="fill:none;stroke:#000000;stroke-width:0.26458332px;stroke-linecap:butt;stroke-linejoin:miter;stroke-opacity:1" />
            </g>
            <use
               x="0"
               y="0"
               xlink:href="#g5151"
               id="use5153"
               transform="translate(0,11.235964)"
               width="100%"
               height="100%" />
            <g
               id="g5166">
              <path
                 inkscape:connector-curvature="0"
                 id="path5161"
                 d="M 59.867706,90.177794 H 48.715588"
                 style="fill:none;stroke:#000000;stroke-width:0.26458332px;stroke-linecap:butt;stroke-linejoin:miter;stroke-opacity:1" />
              <circle
                 r="0.62652361"
                 cy="90.177795"
                 cx="59.867706"
                 id="path5155"
                 style="opacity:1;fill:#000000;fill-opacity:1;stroke:#000000;stroke-width:0.5;stroke-linecap:round;stroke-linejoin:miter;stroke-miterlimit:4;stroke-dasharray:none;stroke-dashoffset:0;stroke-opacity:1" />
              <circle
                 style="opacity:1;fill:#ffffff;fill-opacity:1;stroke:#000000;stroke-width:0.5;stroke-linecap:round;stroke-linejoin:miter;stroke-miterlimit:4;stroke-dasharray:none;stroke-dashoffset:0;stroke-opacity:1"
                 id="circle5159"
                 cx="48.715588"
                 cy="90.177795"
                 r="0.62652361" />
            </g>
            <text
               id="text5121-8"
               y="91.372803"
               x="66.370193"
               style="font-style:normal;font-variant:normal;font-weight:normal;font-stretch:normal;font-size:4.23333311px;line-height:1.25;font-family:Ubuntu;-inkscape-font-specification:'Ubuntu, Normal';font-variant-ligatures:normal;font-variant-caps:normal;font-variant-numeric:normal;font-feature-settings:normal;text-align:start;letter-spacing:0px;word-spacing:0px;writing-mode:lr-tb;text-anchor:start;fill:#000000;fill-opacity:1;stroke:none;stroke-width:0.26458332"
               xml:space="preserve"><tspan
                 style="font-size:4.23333311px;stroke-width:0.26458332"
                 y="91.372803"
                 x="66.370193"
                 id="tspan5119-4"
                 sodipodi:role="line">open</tspan></text>
            <text
               xml:space="preserve"
               style="font-style:normal;font-variant:normal;font-weight:normal;font-stretch:normal;font-size:4.23333311px;line-height:1.25;font-family:Ubuntu;-inkscape-font-specification:'Ubuntu, Normal';font-variant-ligatures:normal;font-variant-caps:normal;font-variant-numeric:normal;font-feature-settings:normal;text-align:start;letter-spacing:0px;word-spacing:0px;writing-mode:lr-tb;text-anchor:start;fill:#000000;fill-opacity:1;stroke:none;stroke-width:0.26458332"
               x="66.370193"
               y="81.183365"
               id="text5188"><tspan
                 sodipodi:role="line"
                 x="66.370193"
                 y="81.183365"
                 style="font-size:4.23333311px;stroke-width:0.26458332"
                 id="tspan5194">teach</tspan></text>
            <text
               id="text5192"
               y="69.576263"
               x="66.370193"
               style="font-style:normal;font-variant:normal;font-weight:normal;font-stretch:normal;font-size:4.23333311px;line-height:1.25;font-family:Ubuntu;-inkscape-font-specification:'Ubuntu, Normal';font-variant-ligatures:normal;font-variant-caps:normal;font-variant-numeric:normal;font-feature-settings:normal;text-align:start;letter-spacing:0px;word-spacing:0px;writing-mode:lr-tb;text-anchor:start;fill:#000000;fill-opacity:1;stroke:none;stroke-width:0.26458332"
               xml:space="preserve"><tspan
                 style="font-size:4.23333311px;stroke-width:0.26458332"
                 y="69.576263"
                 x="66.370193"
                 id="tspan5190"
                 sodipodi:role="line">data</tspan></text>
            <path
               inkscape:connector-curvature="0"
               id="path5198"
               d="m 48.466287,82.224342 h 15.06265"
               style="fill:none;stroke:#800000;stroke-width:0.26458332px;stroke-linecap:butt;stroke-linejoin:miter;stroke-opacity:1" />
            <path
               style="fill:none;stroke:#800000;stroke-width:0.26458332px;stroke-linecap:butt;stroke-linejoin:miter;stroke-opacity:1"
               d="m 52.076477,68.711104 0.468103,2.506094 0.750038,-4.886884 0.750038,4.886884 0.750039,-4.886884 0.750038,4.886884 0.750038,-4.886884 0.750038,4.886884 0.750039,-4.886884 0.436776,2.459097"
               id="path5196"
               inkscape:connector-curvature="0"
               sodipodi:nodetypes="cccccccccc" />
          </g>
        </g>
        <g
           id="g5670"
           transform="translate(-16.933338)"
           inkscape:export-filename="/home/juanpi/Downloads/memnet.png"
           inkscape:export-xdpi="150"
           inkscape:export-ydpi="150">
          <g
             transform="matrix(1.8142553,0,0,1.8142553,193.40405,33.496604)"
             id="use5231"
             style="stroke-width:0.55119038">
            <circle
               r="2.9399648"
               cy="28.562437"
               cx="-40.147533"
               id="circle2256"
               style="opacity:1;fill:#ffffff;fill-opacity:1;stroke:#000000;stroke-width:0.5;stroke-linecap:butt;stroke-linejoin:miter;stroke-miterlimit:4;stroke-dasharray:none;stroke-dashoffset:0;stroke-opacity:1" />
            <text
               id="text2260"
               y="30.396"
               x="-41.901722"
               style="font-style:normal;font-variant:normal;font-weight:normal;font-stretch:normal;font-size:5.29166651px;line-height:1.25;font-family:Ubuntu;-inkscape-font-specification:'Ubuntu, Normal';font-variant-ligatures:normal;font-variant-caps:normal;font-variant-numeric:normal;font-feature-settings:normal;text-align:start;letter-spacing:0px;word-spacing:0px;writing-mode:lr-tb;text-anchor:start;fill:#000000;fill-opacity:1;stroke:none;stroke-width:0.26458332"
               xml:space="preserve"><tspan
                 style="font-size:5.29166651px;stroke-width:0.26458332"
                 y="30.396"
                 x="-41.901722"
                 id="tspan2258"
                 sodipodi:role="line">A</tspan></text>
          </g>
          <g
             transform="translate(80.376118,0.72983822)"
             id="g5217-7">
            <g
               transform="translate(0.63798275)"
               id="g5313">
              <g
                 id="g5166-2">
                <path
                   style="fill:none;stroke:#000000;stroke-width:0.26458332px;stroke-linecap:butt;stroke-linejoin:miter;stroke-opacity:1"
                   d="M 59.867706,90.177794 H 48.715588"
                   id="path5161-9"
                   inkscape:connector-curvature="0" />
                <circle
                   style="opacity:1;fill:#000000;fill-opacity:1;stroke:#000000;stroke-width:0.5;stroke-linecap:round;stroke-linejoin:miter;stroke-miterlimit:4;stroke-dasharray:none;stroke-dashoffset:0;stroke-opacity:1"
                   id="path5155-9"
                   cx="59.867706"
                   cy="90.177795"
                   r="0.62652361" />
                <circle
                   r="0.62652361"
                   cy="90.177795"
                   cx="48.715588"
                   id="circle5159-0"
                   style="opacity:1;fill:#ffffff;fill-opacity:1;stroke:#000000;stroke-width:0.5;stroke-linecap:round;stroke-linejoin:miter;stroke-miterlimit:4;stroke-dasharray:none;stroke-dashoffset:0;stroke-opacity:1" />
              </g>
              <text
                 xml:space="preserve"
                 style="font-style:normal;font-variant:normal;font-weight:normal;font-stretch:normal;font-size:4.23333311px;line-height:1.25;font-family:Ubuntu;-inkscape-font-specification:'Ubuntu, Normal';font-variant-ligatures:normal;font-variant-caps:normal;font-variant-numeric:normal;font-feature-settings:normal;text-align:start;letter-spacing:0px;word-spacing:0px;writing-mode:lr-tb;text-anchor:start;fill:#000000;fill-opacity:1;stroke:none;stroke-width:0.26458332"
                 x="66.370193"
                 y="91.372803"
                 id="text5121-8-8"><tspan
                   sodipodi:role="line"
                   id="tspan5119-4-1"
                   x="66.370193"
                   y="91.372803"
                   style="font-size:4.23333311px;stroke-width:0.26458332">open</tspan></text>
            </g>
            <text
               xml:space="preserve"
               style="font-style:normal;font-variant:normal;font-weight:normal;font-stretch:normal;font-size:4.23333311px;line-height:1.25;font-family:Ubuntu;-inkscape-font-specification:'Ubuntu, Normal';font-variant-ligatures:normal;font-variant-caps:normal;font-variant-numeric:normal;font-feature-settings:normal;text-align:start;letter-spacing:0px;word-spacing:0px;writing-mode:lr-tb;text-anchor:start;fill:#000000;fill-opacity:1;stroke:none;stroke-width:0.26458332"
               x="48.295013"
               y="80.132401"
               id="text5188-3"><tspan
                 sodipodi:role="line"
                 x="48.295013"
                 y="80.132401"
                 style="font-size:4.23333311px;stroke-width:0.26458332"
                 id="tspan5194-1">amperimeter</tspan></text>
          </g>
        </g>
      </g>
    </g>
  </g>
</svg>
